{
  "count": 296,
  "previous": null,
  "next": "https://freesound.org/apiv2/search/?&query=digital%20beep%20short&filter=duration:[*%20TO%202.0]&weights=&page=2&fields=id,name,username,duration,license,url,num_downloads,previews",
  "results": [
    {
      "id": 172875,
      "url": "https://freesound.org/people/razor2988/sounds/172875/",
      "name": "digital beep.wav",
      "license": "http://creativecommons.org/publicdomain/zero/1.0/",
      "duration": 1.0,
      "username": "razor2988",
      "previews": {
        "preview-hq-mp3": "https://cdn.freesound.org/previews/172/172875_2334516-hq.mp3",
        "preview-hq-ogg": "https://cdn.freesound.org/previews/172/172875_2334516-hq.ogg",
        "preview-lq-mp3": "https://cdn.freesound.org/previews/172/172875_2334516-lq.mp3",
        "preview-lq-ogg": "https://cdn.freesound.org/previews/172/172875_2334516-lq.ogg"
      },
      "num_downloads": 736
    },
    {
      "id": 254175,
      "url": "https://freesound.org/people/kwahmah_02/sounds/254175/",
      "name": "t.wav",
      "license": "http://creativecommons.org/licenses/by/3.0/",
      "duration": 0.1,
      "username": "kwahmah_02",
      "previews": {
        "preview-hq-mp3": "https://cdn.freesound.org/previews/254/254175_4486188-hq.mp3",
        "preview-hq-ogg": "https://cdn.freesound.org/previews/254/254175_4486188-hq.ogg",
        "preview-lq-mp3": "https://cdn.freesound.org/previews/254/254175_4486188-lq.mp3",
        "preview-lq-ogg": "https://cdn.freesound.org/previews/254/254175_4486188-lq.ogg"
      },
      "num_downloads": 56
    },
    {
      "id": 254173,
      "url": "https://freesound.org/people/kwahmah_02/sounds/254173/",
      "name": "n.wav",
      "license": "http://creativecommons.org/licenses/by/3.0/",
      "duration": 0.1,
      "username": "kwahmah_02",
      "previews": {
        "preview-hq-mp3": "https://cdn.freesound.org/previews/254/254173_4486188-hq.mp3",
        "preview-hq-ogg": "https://cdn.freesound.org/previews/254/254173_4486188-hq.ogg",
        "preview-lq-mp3": "https://cdn.freesound.org/previews/254/254173_4486188-lq.mp3",
        "preview-lq-ogg": "https://cdn.freesound.org/previews/254/254173_4486188-lq.ogg"
      },
      "num_downloads": 65
    },
    {
      "id": 254171,
      "url": "https://freesound.org/people/kwahmah_02/sounds/254171/",
      "name": "q.wav",
      "license": "http://creativecommons.org/licenses/by/3.0/",
      "duration": 0.1,
      "username": "kwahmah_02",
      "previews": {
        "preview-hq-mp3": "https://cdn.freesound.org/previews/254/254171_4486188-hq.mp3",
        "preview-hq-ogg": "https://cdn.freesound.org/previews/254/254171_4486188-hq.ogg",
        "preview-lq-mp3": "https://cdn.freesound.org/previews/254/254171_4486188-lq.mp3",
        "preview-lq-ogg": "https://cdn.freesound.org/previews/254/254171_4486188-lq.ogg"
      },
      "num_downloads": 139
    },
    {
      "id": 254174,
      "url": "https://freesound.org/people/kwahmah_02/sounds/254174/",
      "name": "s.wav",
      "license": "http://creativecommons.org/licenses/by/3.0/",
      "duration": 0.1,
      "username": "kwahmah_02",
      "previews": {
        "preview-hq-mp3": "https://cdn.freesound.org/previews/254/254174_4486188-hq.mp3",
        "preview-hq-ogg": "https://cdn.freesound.org/previews/254/254174_4486188-hq.ogg",
        "preview-lq-mp3": "https://cdn.freesound.org/previews/254/254174_4486188-lq.mp3",
        "preview-lq-ogg": "https://cdn.freesound.org/previews/254/254174_4486188-lq.ogg"
      },
      "num_downloads": 465
    },
    {
      "id": 254176,
      "url": "https://freesound.org/people/kwahmah_02/sounds/254176/",
      "name": "j.wav",
      "license": "http://creativecommons.org/licenses/by/3.0/",
      "duration": 0.1,
      "username": "kwahmah_02",
      "previews": {
        "preview-hq-mp3": "https://cdn.freesound.org/previews/254/254176_4486188-hq.mp3",
        "preview-hq-ogg": "https://cdn.freesound.org/previews/254/254176_4486188-hq.ogg",
        "preview-lq-mp3": "https://cdn.freesound.org/previews/254/254176_4486188-lq.mp3",
        "preview-lq-ogg": "https://cdn.freesound.org/previews/254/254176_4486188-lq.ogg"
      },
      "num_downloads": 40
    },
    {
      "id": 589353,
      "url": "https://freesound.org/people/MrFossy/sounds/589353/",
      "name": "SFX_MONOSJAM_slayer_impulse_34.wav",
      "license": "http://creativecommons.org/publicdomain/zero/1.0/",
      "duration": 0.340499,
      "username": "MrFossy",
      "previews": {
        "preview-hq-mp3": "https://cdn.freesound.org/previews/589/589353_129727-hq.mp3",
        "preview-hq-ogg": "https://cdn.freesound.org/previews/589/589353_129727-hq.ogg",
        "preview-lq-mp3": "https://cdn.freesound.org/previews/589/589353_129727-lq.mp3",
        "preview-lq-ogg": "https://cdn.freesound.org/previews/589/589353_129727-lq.ogg"
      },
      "num_downloads": 35
    },
    {
      "id": 589352,
      "url": "https://freesound.org/people/MrFossy/sounds/589352/",
      "name": "SFX_MONOSJAM_slayer_impulse_33.wav",
      "license": "http://creativecommons.org/publicdomain/zero/1.0/",
      "duration": 0.154535,
      "username": "MrFossy",
      "previews": {
        "preview-hq-mp3": "https://cdn.freesound.org/previews/589/589352_129727-hq.mp3",
        "preview-hq-ogg": "https://cdn.freesound.org/previews/589/589352_129727-hq.ogg",
        "preview-lq-mp3": "https://cdn.freesound.org/previews/589/589352_129727-lq.mp3",
        "preview-lq-ogg": "https://cdn.freesound.org/previews/589/589352_129727-lq.ogg"
      },
      "num_downloads": 197
    },
    {
      "id": 589351,
      "url": "https://freesound.org/people/MrFossy/sounds/589351/",
      "name": "SFX_MONOSJAM_slayer_impulse_32.wav",
      "license": "http://creativecommons.org/publicdomain/zero/1.0/",
      "duration": 0.333424,
      "username": "MrFossy",
      "previews": {
        "preview-hq-mp3": "https://cdn.freesound.org/previews/589/589351_129727-hq.mp3",
        "preview-hq-ogg": "https://cdn.freesound.org/previews/589/589351_129727-hq.ogg",
        "preview-lq-mp3": "https://cdn.freesound.org/previews/589/589351_129727-lq.mp3",
        "preview-lq-ogg": "https://cdn.freesound.org/previews/589/589351_129727-lq.ogg"
      },
      "num_downloads": 39
    },
    {
      "id": 589350,
      "url": "https://freesound.org/people/MrFossy/sounds/589350/",
      "name": "SFX_MONOSJAM_slayer_impulse_31.wav",
      "license": "http://creativecommons.org/publicdomain/zero/1.0/",
      "duration": 0.250295,
      "username": "MrFossy",
      "previews": {
        "preview-hq-mp3": "https://cdn.freesound.org/previews/589/589350_129727-hq.mp3",
        "preview-hq-ogg": "https://cdn.freesound.org/previews/589/589350_129727-hq.ogg",
        "preview-lq-mp3": "https://cdn.freesound.org/previews/589/589350_129727-lq.mp3",
        "preview-lq-ogg": "https://cdn.freesound.org/previews/589/589350_129727-lq.ogg"
      },
      "num_downloads": 33
    },
    {
      "id": 589349,
      "url": "https://freesound.org/people/MrFossy/sounds/589349/",
      "name": "SFX_MONOSJAM_slayer_impulse_30.wav",
      "license": "http://creativecommons.org/publicdomain/zero/1.0/",
      "duration": 0.18619,
      "username": "MrFossy",
      "previews": {
        "preview-hq-mp3": "https://cdn.freesound.org/previews/589/589349_129727-hq.mp3",
        "preview-hq-ogg": "https://cdn.freesound.org/previews/589/589349_129727-hq.ogg",
        "preview-lq-mp3": "https://cdn.freesound.org/previews/589/589349_129727-lq.mp3",
        "preview-lq-ogg": "https://cdn.freesound.org/previews/589/589349_129727-lq.ogg"
      },
      "num_downloads": 38
    },
    {
      "id": 589348,
      "url": "https://freesound.org/people/MrFossy/sounds/589348/",
      "name": "SFX_MONOSJAM_slayer_impulse_29.wav",
      "license": "http://creativecommons.org/publicdomain/zero/1.0/",
      "duration": 0.199955,
      "username": "MrFossy",
      "previews": {
        "preview-hq-mp3": "https://cdn.freesound.org/previews/589/589348_129727-hq.mp3",
        "preview-hq-ogg": "https://cdn.freesound.org/previews/589/589348_129727-hq.ogg",
        "preview-lq-mp3": "https://cdn.freesound.org/previews/589/589348_129727-lq.mp3",
        "preview-lq-ogg": "https://cdn.freesound.org/previews/589/589348_129727-lq.ogg"
      },
      "num_downloads": 32
    },
    {
      "id": 589347,
      "url": "https://freesound.org/people/MrFossy/sounds/589347/",
      "name": "SFX_MONOSJAM_slayer_impulse_28.wav",
      "license": "http://creativecommons.org/publicdomain/zero/1.0/",
      "duration": 0.168118,
      "username": "MrFossy",
      "previews": {
        "preview-hq-mp3": "https://cdn.freesound.org/previews/589/589347_129727-hq.mp3",
        "preview-hq-ogg": "https://cdn.freesound.org/previews/589/589347_129727-hq.ogg",
        "preview-lq-mp3": "https://cdn.freesound.org/previews/589/589347_129727-lq.mp3",
        "preview-lq-ogg": "https://cdn.freesound.org/previews/589/589347_129727-lq.ogg"
      },
      "num_downloads": 34
    },
    {
      "id": 589346,
      "url": "https://freesound.org/people/MrFossy/sounds/589346/",
      "name": "SFX_MONOSJAM_slayer_impulse_27.wav",
      "license": "http://creativecommons.org/publicdomain/zero/1.0/",
      "duration": 0.402449,
      "username": "MrFossy",
      "previews": {
        "preview-hq-mp3": "https://cdn.freesound.org/previews/589/589346_129727-hq.mp3",
        "preview-hq-ogg": "https://cdn.freesound.org/previews/589/589346_129727-hq.ogg",
        "preview-lq-mp3": "https://cdn.freesound.org/previews/589/589346_129727-lq.mp3",
        "preview-lq-ogg": "https://cdn.freesound.org/previews/589/589346_129727-lq.ogg"
      },
      "num_downloads": 39
    },
    {
      "id": 589345,
      "url": "https://freesound.org/people/MrFossy/sounds/589345/",
      "name": "SFX_MONOSJAM_slayer_impulse_26.wav",
      "license": "http://creativecommons.org/publicdomain/zero/1.0/",
      "duration": 0.249705,
      "username": "MrFossy",
      "previews": {
        "preview-hq-mp3": "https://cdn.freesound.org/previews/589/589345_129727-hq.mp3",
        "preview-hq-ogg": "https://cdn.freesound.org/previews/589/589345_129727-hq.ogg",
        "preview-lq-mp3": "https://cdn.freesound.org/previews/589/589345_129727-lq.mp3",
        "preview-lq-ogg": "https://cdn.freesound.org/previews/589/589345_129727-lq.ogg"
      },
      "num_downloads": 37
    }
  ]
}