{
  "count": 281,
  "previous": null,
  "next": "https://freesound.org/apiv2/search/?&query=heartbeat&filter=duration:[*%20TO%2010.0]&weights=&page=2&fields=id,name,username,duration,license,url,num_downloads,previews",
  "results": [
    {
      "id": 784657,
      "url": "https://freesound.org/people/music_is_wiggly_air/sounds/784657/",
      "name": "heartbeat sub kick - soft",
      "license": "http://creativecommons.org/publicdomain/zero/1.0/",
      "duration": 0.373855,
      "username": "music_is_wiggly_air",
      "previews": {
        "preview-hq-mp3": "https://cdn.freesound.org/previews/784/784657_16749461-hq.mp3",
        "preview-hq-ogg": "https://cdn.freesound.org/previews/784/784657_16749461-hq.ogg",
        "preview-lq-mp3": "https://cdn.freesound.org/previews/784/784657_16749461-lq.mp3",
        "preview-lq-ogg": "https://cdn.freesound.org/previews/784/784657_16749461-lq.ogg"
      },
      "num_downloads": 185
    },
    {
      "id": 784655,
      "url": "https://freesound.org/people/music_is_wiggly_air/sounds/784655/",
      "name": "heartbeat sub kick - louder",
      "license": "http://creativecommons.org/publicdomain/zero/1.0/",
      "duration": 0.34356,
      "username": "music_is_wiggly_air",
      "previews": {
        "preview-hq-mp3": "https://cdn.freesound.org/previews/784/784655_16749461-hq.mp3",
        "preview-hq-ogg": "https://cdn.freesound.org/previews/784/784655_16749461-hq.ogg",
        "preview-lq-mp3": "https://cdn.freesound.org/previews/784/784655_16749461-lq.mp3",
        "preview-lq-ogg": "https://cdn.freesound.org/previews/784/784655_16749461-lq.ogg"
      },
      "num_downloads": 203
    },
    {
      "id": 784654,
      "url": "https://freesound.org/people/music_is_wiggly_air/sounds/784654/",
      "name": "heartbeat sub kick - loud",
      "license": "http://creativecommons.org/publicdomain/zero/1.0/",
      "duration": 0.268685,
      "username": "music_is_wiggly_air",
      "previews": {
        "preview-hq-mp3": "https://cdn.freesound.org/previews/784/784654_16749461-hq.mp3",
        "preview-hq-ogg": "https://cdn.freesound.org/previews/784/784654_16749461-hq.ogg",
        "preview-lq-mp3": "https://cdn.freesound.org/previews/784/784654_16749461-lq.mp3",
        "preview-lq-ogg": "https://cdn.freesound.org/previews/784/784654_16749461-lq.ogg"
      },
      "num_downloads": 175
    },
    {
      "id": 784658,
      "url": "https://freesound.org/people/music_is_wiggly_air/sounds/784658/",
      "name": "heartbeat sub kick - softer",
      "license": "http://creativecommons.org/publicdomain/zero/1.0/",
      "duration": 0.250703,
      "username": "music_is_wiggly_air",
      "previews": {
        "preview-hq-mp3": "https://cdn.freesound.org/previews/784/784658_16749461-hq.mp3",
        "preview-hq-ogg": "https://cdn.freesound.org/previews/784/784658_16749461-hq.ogg",
        "preview-lq-mp3": "https://cdn.freesound.org/previews/784/784658_16749461-lq.mp3",
        "preview-lq-ogg": "https://cdn.freesound.org/previews/784/784658_16749461-lq.ogg"
      },
      "num_downloads": 205
    },
    {
      "id": 784656,
      "url": "https://freesound.org/people/music_is_wiggly_air/sounds/784656/",
      "name": "heartbeat sub kick - mid",
      "license": "http://creativecommons.org/publicdomain/zero/1.0/",
      "duration": 0.292109,
      "username": "music_is_wiggly_air",
      "previews": {
        "preview-hq-mp3": "https://cdn.freesound.org/previews/784/784656_16749461-hq.mp3",
        "preview-hq-ogg": "https://cdn.freesound.org/previews/784/784656_16749461-hq.ogg",
        "preview-lq-mp3": "https://cdn.freesound.org/previews/784/784656_16749461-lq.mp3",
        "preview-lq-ogg": "https://cdn.freesound.org/previews/784/784656_16749461-lq.ogg"
      },
      "num_downloads": 169
    },
    {
      "id": 254366,
      "url": "https://freesound.org/people/Poyekhali/sounds/254366/",
      "name": "Heartbeat Fast",
      "license": "http://creativecommons.org/licenses/by/3.0/",
      "duration": 5.59084,
      "username": "Poyekhali",
      "previews": {
        "preview-hq-mp3": "https://cdn.freesound.org/previews/254/254366_3146873-hq.mp3",
        "preview-hq-ogg": "https://cdn.freesound.org/previews/254/254366_3146873-hq.ogg",
        "preview-lq-mp3": "https://cdn.freesound.org/previews/254/254366_3146873-lq.mp3",
        "preview-lq-ogg": "https://cdn.freesound.org/previews/254/254366_3146873-lq.ogg"
      },
      "num_downloads": 14971
    },
    {
      "id": 418788,
      "url": "https://freesound.org/people/.name/sounds/418788/",
      "name": "heartbeat single",
      "license": "https://creativecommons.org/licenses/by/4.0/",
      "duration": 0.0905442,
      "username": ".name",
      "previews": {
        "preview-hq-mp3": "https://cdn.freesound.org/previews/418/418788_8002726-hq.mp3",
        "preview-hq-ogg": "https://cdn.freesound.org/previews/418/418788_8002726-hq.ogg",
        "preview-lq-mp3": "https://cdn.freesound.org/previews/418/418788_8002726-lq.mp3",
        "preview-lq-ogg": "https://cdn.freesound.org/previews/418/418788_8002726-lq.ogg"
      },
      "num_downloads": 4361
    },
    {
      "id": 418866,
      "url": "https://freesound.org/people/.name/sounds/418866/",
      "name": "Heartbeat loop",
      "license": "https://creativecommons.org/licenses/by/4.0/",
      "duration": 1.0,
      "username": ".name",
      "previews": {
        "preview-hq-mp3": "https://cdn.freesound.org/previews/418/418866_8002726-hq.mp3",
        "preview-hq-ogg": "https://cdn.freesound.org/previews/418/418866_8002726-hq.ogg",
        "preview-lq-mp3": "https://cdn.freesound.org/previews/418/418866_8002726-lq.mp3",
        "preview-lq-ogg": "https://cdn.freesound.org/previews/418/418866_8002726-lq.ogg"
      },
      "num_downloads": 5440
    },
    {
      "id": 666038,
      "url": "https://freesound.org/people/Hewn.Marrow/sounds/666038/",
      "name": "Drums_4ontheFloor KickDrum(150BPM) 02.wav",
      "license": "https://creativecommons.org/licenses/by/4.0/",
      "duration": 8.05,
      "username": "Hewn.Marrow",
      "previews": {
        "preview-hq-mp3": "https://cdn.freesound.org/previews/666/666038_12333864-hq.mp3",
        "preview-hq-ogg": "https://cdn.freesound.org/previews/666/666038_12333864-hq.ogg",
        "preview-lq-mp3": "https://cdn.freesound.org/previews/666/666038_12333864-lq.mp3",
        "preview-lq-ogg": "https://cdn.freesound.org/previews/666/666038_12333864-lq.ogg"
      },
      "num_downloads": 23
    },
    {
      "id": 666037,
      "url": "https://freesound.org/people/Hewn.Marrow/sounds/666037/",
      "name": "Drums_4ontheFloor KickDrum(100BPM) 02.wav",
      "license": "https://creativecommons.org/licenses/by/4.0/",
      "duration": 8.69374,
      "username": "Hewn.Marrow",
      "previews": {
        "preview-hq-mp3": "https://cdn.freesound.org/previews/666/666037_12333864-hq.mp3",
        "preview-hq-ogg": "https://cdn.freesound.org/previews/666/666037_12333864-hq.ogg",
        "preview-lq-mp3": "https://cdn.freesound.org/previews/666/666037_12333864-lq.mp3",
        "preview-lq-ogg": "https://cdn.freesound.org/previews/666/666037_12333864-lq.ogg"
      },
      "num_downloads": 22
    },
    {
      "id": 666036,
      "url": "https://freesound.org/people/Hewn.Marrow/sounds/666036/",
      "name": "Drums_4ontheFloor KickDrum(108BPM) 02.wav",
      "license": "https://creativecommons.org/licenses/by/4.0/",
      "duration": 8.64005,
      "username": "Hewn.Marrow",
      "previews": {
        "preview-hq-mp3": "https://cdn.freesound.org/previews/666/666036_12333864-hq.mp3",
        "preview-hq-ogg": "https://cdn.freesound.org/previews/666/666036_12333864-hq.ogg",
        "preview-lq-mp3": "https://cdn.freesound.org/previews/666/666036_12333864-lq.mp3",
        "preview-lq-ogg": "https://cdn.freesound.org/previews/666/666036_12333864-lq.ogg"
      },
      "num_downloads": 24
    },
    {
      "id": 666035,
      "url": "https://freesound.org/people/Hewn.Marrow/sounds/666035/",
      "name": "Drums_4ontheFloor KickDrum(120BPM) 02.wav",
      "license": "https://creativecommons.org/licenses/by/4.0/",
      "duration": 8.53125,
      "username": "Hewn.Marrow",
      "previews": {
        "preview-hq-mp3": "https://cdn.freesound.org/previews/666/666035_12333864-hq.mp3",
        "preview-hq-ogg": "https://cdn.freesound.org/previews/666/666035_12333864-hq.ogg",
        "preview-lq-mp3": "https://cdn.freesound.org/previews/666/666035_12333864-lq.mp3",
        "preview-lq-ogg": "https://cdn.freesound.org/previews/666/666035_12333864-lq.ogg"
      },
      "num_downloads": 23
    },
    {
      "id": 666034,
      "url": "https://freesound.org/people/Hewn.Marrow/sounds/666034/",
      "name": "Drums_4ontheFloor KickDrum(128BPM) 02.wav",
      "license": "https://creativecommons.org/licenses/by/4.0/",
      "duration": 8.39844,
      "username": "Hewn.Marrow",
      "previews": {
        "preview-hq-mp3": "https://cdn.freesound.org/previews/666/666034_12333864-hq.mp3",
        "preview-hq-ogg": "https://cdn.freesound.org/previews/666/666034_12333864-hq.ogg",
        "preview-lq-mp3": "https://cdn.freesound.org/previews/666/666034_12333864-lq.mp3",
        "preview-lq-ogg": "https://cdn.freesound.org/previews/666/666034_12333864-lq.ogg"
      },
      "num_downloads": 23
    },
    {
      "id": 666033,
      "url": "https://freesound.org/people/Hewn.Marrow/sounds/666033/",
      "name": "Drums_4ontheFloor KickDrum(260BPM) 02.wav",
      "license": "https://creativecommons.org/licenses/by/4.0/",
      "duration": 7.66587,
      "username": "Hewn.Marrow",
      "previews": {
        "preview-hq-mp3": "https://cdn.freesound.org/previews/666/666033_12333864-hq.mp3",
        "preview-hq-ogg": "https://cdn.freesound.org/previews/666/666033_12333864-hq.ogg",
        "preview-lq-mp3": "https://cdn.freesound.org/previews/666/666033_12333864-lq.mp3",
        "preview-lq-ogg": "https://cdn.freesound.org/previews/666/666033_12333864-lq.ogg"
      },
      "num_downloads": 21
    },
    {
      "id": 666032,
      "url": "https://freesound.org/people/Hewn.Marrow/sounds/666032/",
      "name": "Drums_4ontheFloor KickDrum(270BPM) 02.wav",
      "license": "https://creativecommons.org/licenses/by/4.0/",
      "duration": 7.50463,
      "username": "Hewn.Marrow",
      "previews": {
        "preview-hq-mp3": "https://cdn.freesound.org/previews/666/666032_12333864-hq.mp3",
        "preview-hq-ogg": "https://cdn.freesound.org/previews/666/666032_12333864-hq.ogg",
        "preview-lq-mp3": "https://cdn.freesound.org/previews/666/666032_12333864-lq.mp3",
        "preview-lq-ogg": "https://cdn.freesound.org/previews/666/666032_12333864-lq.ogg"
      },
      "num_downloads": 23
    }
  ]
}