{
  "count": 182,
  "previous": null,
  "next": "https://freesound.org/apiv2/search/?&query=heartbeat&filter=duration:[2.0%20TO%20*]%20duration:[*%20TO%2010.0]&weights=&page=2&fields=id,name,username,duration,license,url,num_downloads,previews",
  "results": [
    {
      "id": 254366,
      "url": "https://freesound.org/people/Poyekhali/sounds/254366/",
      "name": "Heartbeat Fast",
      "license": "http://creativecommons.org/licenses/by/3.0/",
      "duration": 5.59084,
      "username": "Poyekhali",
      "previews": {
        "preview-hq-mp3": "https://cdn.freesound.org/previews/254/254366_3146873-hq.mp3",
        "preview-hq-ogg": "https://cdn.freesound.org/previews/254/254366_3146873-hq.ogg",
        "preview-lq-mp3": "https://cdn.freesound.org/previews/254/254366_3146873-lq.mp3",
        "preview-lq-ogg": "https://cdn.freesound.org/previews/254/254366_3146873-lq.ogg"
      },
      "num_downloads": 14971
    },
    {
      "id": 666038,
      "url": "https://freesound.org/people/Hewn.Marrow/sounds/666038/",
      "name": "Drums_4ontheFloor KickDrum(150BPM) 02.wav",
      "license": "https://creativecommons.org/licenses/by/4.0/",
      "duration": 8.05,
      "username": "Hewn.Marrow",
      "previews": {
        "preview-hq-mp3": "https://cdn.freesound.org/previews/666/666038_12333864-hq.mp3",
        "preview-hq-ogg": "https://cdn.freesound.org/previews/666/666038_12333864-hq.ogg",
        "preview-lq-mp3": "https://cdn.freesound.org/previews/666/666038_12333864-lq.mp3",
        "preview-lq-ogg": "https://cdn.freesound.org/previews/666/666038_12333864-lq.ogg"
      },
      "num_downloads": 23
    },
    {
      "id": 666037,
      "url": "https://freesound.org/people/Hewn.Marrow/sounds/666037/",
      "name": "Drums_4ontheFloor KickDrum(100BPM) 02.wav",
      "license": "https://creativecommons.org/licenses/by/4.0/",
      "duration": 8.69374,
      "username": "Hewn.Marrow",
      "previews": {
        "preview-hq-mp3": "https://cdn.freesound.org/previews/666/666037_12333864-hq.mp3",
        "preview-hq-ogg": "https://cdn.freesound.org/previews/666/666037_12333864-hq.ogg",
        "preview-lq-mp3": "https://cdn.freesound.org/previews/666/666037_12333864-lq.mp3",
        "preview-lq-ogg": "https://cdn.freesound.org/previews/666/666037_12333864-lq.ogg"
      },
      "num_downloads": 22
    },
    {
      "id": 666036,
      "url": "https://freesound.org/people/Hewn.Marrow/sounds/666036/",
      "name": "Drums_4ontheFloor KickDrum(108BPM) 02.wav",
      "license": "https://creativecommons.org/licenses/by/4.0/",
      "duration": 8.64005,
      "username": "Hewn.Marrow",
      "previews": {
        "preview-hq-mp3": "https://cdn.freesound.org/previews/666/666036_12333864-hq.mp3",
        "preview-hq-ogg": "https://cdn.freesound.org/previews/666/666036_12333864-hq.ogg",
        "preview-lq-mp3": "https://cdn.freesound.org/previews/666/666036_12333864-lq.mp3",
        "preview-lq-ogg": "https://cdn.freesound.org/previews/666/666036_12333864-lq.ogg"
      },
      "num_downloads": 24
    },
    {
      "id": 666035,
      "url": "https://freesound.org/people/Hewn.Marrow/sounds/666035/",
      "name": "Drums_4ontheFloor KickDrum(120BPM) 02.wav",
      "license": "https://creativecommons.org/licenses/by/4.0/",
      "duration": 8.53125,
      "username": "Hewn.Marrow",
      "previews": {
        "preview-hq-mp3": "https://cdn.freesound.org/previews/666/666035_12333864-hq.mp3",
        "preview-hq-ogg": "https://cdn.freesound.org/previews/666/666035_12333864-hq.ogg",
        "preview-lq-mp3": "https://cdn.freesound.org/previews/666/666035_12333864-lq.mp3",
        "preview-lq-ogg": "https://cdn.freesound.org/previews/666/666035_12333864-lq.ogg"
      },
      "num_downloads": 23
    },
    {
      "id": 666034,
      "url": "https://freesound.org/people/Hewn.Marrow/sounds/666034/",
      "name": "Drums_4ontheFloor KickDrum(128BPM) 02.wav",
      "license": "https://creativecommons.org/licenses/by/4.0/",
      "duration": 8.39844,
      "username": "Hewn.Marrow",
      "previews": {
        "preview-hq-mp3": "https://cdn.freesound.org/previews/666/666034_12333864-hq.mp3",
        "preview-hq-ogg": "https://cdn.freesound.org/previews/666/666034_12333864-hq.ogg",
        "preview-lq-mp3": "https://cdn.freesound.org/previews/666/666034_12333864-lq.mp3",
        "preview-lq-ogg": "https://cdn.freesound.org/previews/666/666034_12333864-lq.ogg"
      },
      "num_downloads": 23
    },
    {
      "id": 666033,
      "url": "https://freesound.org/people/Hewn.Marrow/sounds/666033/",
      "name": "Drums_4ontheFloor KickDrum(260BPM) 02.wav",
      "license": "https://creativecommons.org/licenses/by/4.0/",
      "duration": 7.66587,
      "username": "Hewn.Marrow",
      "previews": {
        "preview-hq-mp3": "https://cdn.freesound.org/previews/666/666033_12333864-hq.mp3",
        "preview-hq-ogg": "https://cdn.freesound.org/previews/666/666033_12333864-hq.ogg",
        "preview-lq-mp3": "https://cdn.freesound.org/previews/666/666033_12333864-lq.mp3",
        "preview-lq-ogg": "https://cdn.freesound.org/previews/666/666033_12333864-lq.ogg"
      },
      "num_downloads": 21
    },
    {
      "id": 666032,
      "url": "https://freesound.org/people/Hewn.Marrow/sounds/666032/",
      "name": "Drums_4ontheFloor KickDrum(270BPM) 02.wav",
      "license": "https://creativecommons.org/licenses/by/4.0/",
      "duration": 7.50463,
      "username": "Hewn.Marrow",
      "previews": {
        "preview-hq-mp3": "https://cdn.freesound.org/previews/666/666032_12333864-hq.mp3",
        "preview-hq-ogg": "https://cdn.freesound.org/previews/666/666032_12333864-hq.ogg",
        "preview-lq-mp3": "https://cdn.freesound.org/previews/666/666032_12333864-lq.mp3",
        "preview-lq-ogg": "https://cdn.freesound.org/previews/666/666032_12333864-lq.ogg"
      },
      "num_downloads": 23
    },
    {
      "id": 666031,
      "url": "https://freesound.org/people/Hewn.Marrow/sounds/666031/",
      "name": "Drums_4ontheFloor KickDrum(220BPM) 02.wav",
      "license": "https://creativecommons.org/licenses/by/4.0/",
      "duration": 7.63351,
      "username": "Hewn.Marrow",
      "previews": {
        "preview-hq-mp3": "https://cdn.freesound.org/previews/666/666031_12333864-hq.mp3",
        "preview-hq-ogg": "https://cdn.freesound.org/previews/666/666031_12333864-hq.ogg",
        "preview-lq-mp3": "https://cdn.freesound.org/previews/666/666031_12333864-lq.mp3",
        "preview-lq-ogg": "https://cdn.freesound.org/previews/666/666031_12333864-lq.ogg"
      },
      "num_downloads": 24
    },
    {
      "id": 666029,
      "url": "https://freesound.org/people/Hewn.Marrow/sounds/666029/",
      "name": "Drums_4ontheFloor KickDrum(230BPM) 02.wav",
      "license": "https://creativecommons.org/licenses/by/4.0/",
      "duration": 7.51902,
      "username": "Hewn.Marrow",
      "previews": {
        "preview-hq-mp3": "https://cdn.freesound.org/previews/666/666029_12333864-hq.mp3",
        "preview-hq-ogg": "https://cdn.freesound.org/previews/666/666029_12333864-hq.ogg",
        "preview-lq-mp3": "https://cdn.freesound.org/previews/666/666029_12333864-lq.mp3",
        "preview-lq-ogg": "https://cdn.freesound.org/previews/666/666029_12333864-lq.ogg"
      },
      "num_downloads": 23
    },
    {
      "id": 666028,
      "url": "https://freesound.org/people/Hewn.Marrow/sounds/666028/",
      "name": "Drums_4ontheFloor KickDrum(240BPM) 02.wav",
      "license": "https://creativecommons.org/licenses/by/4.0/",
      "duration": 7.70834,
      "username": "Hewn.Marrow",
      "previews": {
        "preview-hq-mp3": "https://cdn.freesound.org/previews/666/666028_12333864-hq.mp3",
        "preview-hq-ogg": "https://cdn.freesound.org/previews/666/666028_12333864-hq.ogg",
        "preview-lq-mp3": "https://cdn.freesound.org/previews/666/666028_12333864-lq.mp3",
        "preview-lq-ogg": "https://cdn.freesound.org/previews/666/666028_12333864-lq.ogg"
      },
      "num_downloads": 19
    },
    {
      "id": 666027,
      "url": "https://freesound.org/people/Hewn.Marrow/sounds/666027/",
      "name": "Drums_4ontheFloor KickDrum(250BPM) 02.wav",
      "license": "https://creativecommons.org/licenses/by/4.0/",
      "duration": 7.67501,
      "username": "Hewn.Marrow",
      "previews": {
        "preview-hq-mp3": "https://cdn.freesound.org/previews/666/666027_12333864-hq.mp3",
        "preview-hq-ogg": "https://cdn.freesound.org/previews/666/666027_12333864-hq.ogg",
        "preview-lq-mp3": "https://cdn.freesound.org/previews/666/666027_12333864-lq.mp3",
        "preview-lq-ogg": "https://cdn.freesound.org/previews/666/666027_12333864-lq.ogg"
      },
      "num_downloads": 20
    },
    {
      "id": 666026,
      "url": "https://freesound.org/people/Hewn.Marrow/sounds/666026/",
      "name": "Drums_4ontheFloor KickDrum(180BPM) 02.wav",
      "license": "https://creativecommons.org/licenses/by/4.0/",
      "duration": 7.82986,
      "username": "Hewn.Marrow",
      "previews": {
        "preview-hq-mp3": "https://cdn.freesound.org/previews/666/666026_12333864-hq.mp3",
        "preview-hq-ogg": "https://cdn.freesound.org/previews/666/666026_12333864-hq.ogg",
        "preview-lq-mp3": "https://cdn.freesound.org/previews/666/666026_12333864-lq.mp3",
        "preview-lq-ogg": "https://cdn.freesound.org/previews/666/666026_12333864-lq.ogg"
      },
      "num_downloads": 23
    },
    {
      "id": 666025,
      "url": "https://freesound.org/people/Hewn.Marrow/sounds/666025/",
      "name": "Drums_4ontheFloor KickDrum(190BPM) 02.wav",
      "license": "https://creativecommons.org/licenses/by/4.0/",
      "duration": 7.90789,
      "username": "Hewn.Marrow",
      "previews": {
        "preview-hq-mp3": "https://cdn.freesound.org/previews/666/666025_12333864-hq.mp3",
        "preview-hq-ogg": "https://cdn.freesound.org/previews/666/666025_12333864-hq.ogg",
        "preview-lq-mp3": "https://cdn.freesound.org/previews/666/666025_12333864-lq.mp3",
        "preview-lq-ogg": "https://cdn.freesound.org/previews/666/666025_12333864-lq.ogg"
      },
      "num_downloads": 19
    },
    {
      "id": 666024,
      "url": "https://freesound.org/people/Hewn.Marrow/sounds/666024/",
      "name": "Drums_4ontheFloor KickDrum(200BPM) 02.wav",
      "license": "https://creativecommons.org/licenses/by/4.0/",
      "duration": 7.67812,
      "username": "Hewn.Marrow",
      "previews": {
        "preview-hq-mp3": "https://cdn.freesound.org/previews/666/666024_12333864-hq.mp3",
        "preview-hq-ogg": "https://cdn.freesound.org/previews/666/666024_12333864-hq.ogg",
        "preview-lq-mp3": "https://cdn.freesound.org/previews/666/666024_12333864-lq.mp3",
        "preview-lq-ogg": "https://cdn.freesound.org/previews/666/666024_12333864-lq.ogg"
      },
      "num_downloads": 21
    }
  ]
}